intpipe_testbench.vcd
$date
	Fri Nov 27 13:42:56 2015
$end
$version
	Icarus Verilog
$end
$timescale
	1s
$end
$scope module intpipe_testbench $end
$var wire 4 ! aSel [3:0] $end
$var wire 4 " bSel [3:0] $end
$var wire 16 # cOut [15:0] $end
$var wire 4 $ cSel [3:0] $end
$var wire 1 % cWrite $end
$var reg 4 & a [3:0] $end
$var reg 16 ' aDat [15:0] $end
$var reg 4 ( b [3:0] $end
$var reg 16 ) bDat [15:0] $end
$var reg 4 * c [3:0] $end
$var reg 1 + clk $end
$var reg 16 , ctr [15:0] $end
$var reg 1 - empty $end
$var reg 5 . opCode [4:0] $end
$var reg 1 / pause $end
$scope module p $end
$var wire 4 0 A [3:0] $end
$var wire 16 1 AD1 [15:0] $end
$var wire 16 2 AD2 [15:0] $end
$var wire 16 3 ADAT [15:0] $end
$var wire 4 4 B [3:0] $end
$var wire 16 5 BDAT [15:0] $end
$var wire 4 6 C [3:0] $end
$var wire 1 7 CLK $end
$var wire 1 8 EMPTY $end
$var wire 5 9 OPCODE [4:0] $end
$var wire 1 : PAUSE $end
$var wire 1 ; aPathSel $end
$var wire 4 < aSel [3:0] $end
$var wire 4 = aluOp [3:0] $end
$var wire 16 > aluOut [15:0] $end
$var wire 1 ? bPathSel $end
$var wire 4 @ bSel [3:0] $end
$var wire 16 A cOut [15:0] $end
$var wire 4 B cSel [3:0] $end
$var wire 1 % cWrite $end
$var wire 8 C flgIn [7:0] $end
$var wire 8 D flgOut [7:0] $end
$var wire 1 E writeBack $end
$var reg 16 F aluOutput [15:0] $end
$var reg 1 G write $end
$scope module a $end
$var wire 16 H A [15:0] $end
$var wire 16 I B [15:0] $end
$var wire 8 J FLGIN [7:0] $end
$var wire 4 K OP [3:0] $end
$var wire 17 L addWire [16:0] $end
$var wire 17 M addcWire [16:0] $end
$var wire 16 N andWire [15:0] $end
$var wire 16 O bslWire [15:0] $end
$var wire 16 P bsrWire [15:0] $end
$var wire 1 Q carry $end
$var wire 8 R flgOut [7:0] $end
$var wire 16 S invWire [15:0] $end
$var wire 1 T negative $end
$var wire 16 U nopWire [15:0] $end
$var wire 16 V orWire [15:0] $end
$var wire 16 W out [15:0] $end
$var wire 1 X overflow $end
$var wire 1 E shouldWriteBack $end
$var wire 16 Y subWire [15:0] $end
$var wire 16 Z subcWire [15:0] $end
$var wire 16 [ xorWire [15:0] $end
$var wire 1 \ zero $end
$upscope $end
$upscope $end
$upscope $end
$enddefinitions $end
#0
$dumpvars
1\
bx [
bx Z
bx Y
0X
b0 W
bx V
b0 U
0T
bx S
b1 R
0Q
bx P
bx O
bx N
bx M
bx L
b0 K
bz J
bx I
bx H
xG
b0 F
0E
b1 D
bz C
bx B
b0 A
b1 @
x?
b0 >
b0 =
b0 <
x;
0:
b1 9
08
17
b10 6
b1 5
b1 4
b1 3
b0 2
b1 1
b0 0
0/
b1 .
0-
b0 ,
1+
b10 *
b1 )
b1 (
b1 '
b0 &
x%
bx $
b0 #
b1 "
b0 !
$end
#1
0+
07
b1 ,
b10 '
b10 3
#2
xQ
0%
b0x N
bx1 V
1E
bx0 O
b0xxxxxxxxxxxxxxx P
b1 2
b10 1
0G
b0 $
b0 B
1;
b1 I
0?
b1 =
b1 K
bx >
bx W
b0xx D
b0xx R
x\
1+
17
b10 ,
#3
0+
07
b11 ,
b11 '
b11 3
#4
0Q
1%
b0 N
b11 V
b1111111111111101 S
b11 [
b11 >
b11 W
b10 2
b11 1
1G
bx F
bx #
bx A
b10 $
b10 B
b10 H
b0 D
b0 R
0\
b11 L
b1 Y
b100 O
b1 P
0;
1+
17
b100 ,
#5
0+
07
b101 ,
b100 '
b100 3
#6
b1 N
b1111111111111100 S
b10 [
b100 >
b100 W
b11 H
b100 L
b10 Y
b110 O
b11 2
b100 1
b11 F
b11 #
b11 A
1+
17
b110 ,
#7
0+
07
b111 ,
b101 '
b101 3
#8
b0 N
b101 V
b1111111111111011 S
b101 [
b101 >
b101 W
b100 H
b101 L
b11 Y
b1000 O
b10 P
b100 2
b101 1
b100 F
b100 #
b100 A
1+
17
b1000 ,
#9
0+
07
b1001 ,
b110 '
b110 3
#10
b1 N
b1111111111111010 S
b100 [
b110 >
b110 W
b101 H
b110 L
b100 Y
b1010 O
b101 2
b110 1
b101 F
b101 #
b101 A
1+
17
b0 .
b0 9
b1010 ,
#11
0+
07
b1011 ,
b111 '
b111 3
#12
b0 N
b111 V
b1111111111111001 S
b111 [
0E
b110 H
b111 L
b101 Y
b1100 O
b11 P
b110 2
b111 1
b110 F
b110 #
b110 A
b0 =
b0 K
b0 >
b0 W
b1 D
b1 R
1\
1+
17
b1100 ,
#13
0+
07
b1101 ,
b1000 '
b1000 3
#14
b1 N
b1111111111111000 S
b110 [
0%
b111 H
b1000 L
b110 Y
b1110 O
b111 2
b1000 1
0G
b0 F
b0 #
b0 A
1+
17
b1110 ,
#15
0+
07
b11 .
b11 9
b1111 ,
b1001 '
b1001 3
#16
b0 N
b1001 V
b1111111111110111 S
b1001 [
b1000 H
b1001 L
b111 Y
b10000 O
b100 P
b1000 2
b1001 1
1+
17
b10000 ,
#17
0+
07
b10001 ,
b1010 '
b1010 3
#18
b1 N
b1111111111110110 S
b1000 [
1E
b1001 H
b1010 L
b1000 Y
b10010 O
b1001 2
b1010 1
b11 =
b11 K
b1000 >
b1000 W
b0 D
b0 R
0\
1+
17
b10010 ,
#19
0+
07
b10011 ,
b1011 '
b1011 3
#20
1+
17
1/
1:
b10100 ,
#21
0+
07
b10101 ,
b1100 '
b1100 3
#22
1+
17
b10110 ,
#23
0+
07
b10111 ,
b1101 '
b1101 3
#24
1+
17
b11000 ,
#25
0+
07
b11001 ,
b1110 '
b1110 3
#26
1+
17
b11010 ,
#27
0+
07
b11011 ,
b1111 '
b1111 3
#28
1+
17
b11100 ,
#29
0+
07
b11101 ,
b10000 '
b10000 3
#30
b0 N
b1011 V
b1111111111110101 S
b1011 [
1%
b1010 H
b1011 L
b1001 Y
b1001 >
b1001 W
b10100 O
b101 P
b1010 2
b10000 1
1G
b1000 F
b1000 #
b1000 A
1+
17
0/
0:
b11110 ,
#31
0+
07
b11111 ,
b10001 '
b10001 3
#32
b10001 V
b1111111111101111 S
b10001 [
b10000 H
b10001 L
b1111 Y
b1111 >
b1111 W
b100000 O
b1000 P
b10000 2
b10001 1
b1001 F
b1001 #
b1001 A
1+
17
b100000 ,
#33
0+
07
b100001 ,
b10010 '
b10010 3
#34
b1 N
b1111111111101110 S
b10000 [
b10001 H
b10010 L
b10000 Y
b10000 >
b10000 W
b100010 O
b10001 2
b10010 1
b1111 F
b1111 #
b1111 A
1+
17
b100010 ,
#35
0+
07
b100011 ,
b10011 '
b10011 3
#36
b0 N
b10011 V
b1111111111101101 S
b10011 [
b10010 H
b10011 L
b10001 Y
b10001 >
b10001 W
b100100 O
b1001 P
b10010 2
b10011 1
b10000 F
b10000 #
b10000 A
1+
17
b100100 ,
#37
0+
07
b100101 ,
b10100 '
b10100 3
#38
b1 N
b1111111111101100 S
b10010 [
b10011 H
b10100 L
b10010 Y
b10010 >
b10010 W
b100110 O
b10011 2
b10100 1
b10001 F
b10001 #
b10001 A
1+
17
b100110 ,
#39
0+
07
b100111 ,
b10101 '
b10101 3
#40
b0 N
b10101 V
b1111111111101011 S
b10101 [
b10100 H
b10101 L
b10011 Y
b10011 >
b10011 W
b101000 O
b1010 P
b10100 2
b10101 1
b10010 F
b10010 #
b10010 A
1+
17
b101000 ,
#41
0+
07
b101001 ,
b10110 '
b10110 3
#42
b1 N
b1111111111101010 S
b10100 [
b10101 H
b10110 L
b10100 Y
b10100 >
b10100 W
b101010 O
b10101 2
b10110 1
b10011 F
b10011 #
b10011 A
1+
17
b101010 ,
#43
0+
07
b101011 ,
b10111 '
b10111 3
#44
b0 N
b10111 V
b1111111111101001 S
b10111 [
b10110 H
b10111 L
b10101 Y
b10101 >
b10101 W
b101100 O
b1011 P
b10110 2
b10111 1
b10100 F
b10100 #
b10100 A
1+
17
b101100 ,
#45
0+
07
b101101 ,
b11000 '
b11000 3
#46
b1 N
b1111111111101000 S
b10110 [
b10111 H
b11000 L
b10110 Y
b10110 >
b10110 W
b101110 O
b10111 2
b11000 1
b10101 F
b10101 #
b10101 A
1+
17
b101110 ,
#47
0+
07
b101111 ,
b11001 '
b11001 3
#48
b0 N
b11001 V
b1111111111100111 S
b11001 [
b11000 H
b11001 L
b10111 Y
b10111 >
b10111 W
b110000 O
b1100 P
b11000 2
b11001 1
b10110 F
b10110 #
b10110 A
1+
17
b110000 ,
#49
0+
07
b110001 ,
b11010 '
b11010 3
#50
b1 N
b1111111111100110 S
b11000 [
b11001 H
b11010 L
b11000 Y
b11000 >
b11000 W
b110010 O
b11001 2
b11010 1
b10111 F
b10111 #
b10111 A
1+
17
b110010 ,
#51
0+
07
b110011 ,
b11011 '
b11011 3
#52
b0 N
b11011 V
b1111111111100101 S
b11011 [
b11010 H
b11011 L
b11001 Y
b11001 >
b11001 W
b110100 O
b1101 P
b11010 2
b11011 1
b11000 F
b11000 #
b11000 A
1+
17
b110100 ,
#53
0+
07
b110101 ,
b11100 '
b11100 3
#54
b1 N
b1111111111100100 S
b11010 [
b11011 H
b11100 L
b11010 Y
b11010 >
b11010 W
b110110 O
b11011 2
b11100 1
b11001 F
b11001 #
b11001 A
1+
17
b110110 ,
#55
0+
07
b110111 ,
b11101 '
b11101 3
#56
b0 N
b11101 V
b1111111111100011 S
b11101 [
b11100 H
b11101 L
b11011 Y
b11011 >
b11011 W
b111000 O
b1110 P
b11100 2
b11101 1
b11010 F
b11010 #
b11010 A
1+
17
b111000 ,
#57
0+
07
b111001 ,
b11110 '
b11110 3
#58
b1 N
b1111111111100010 S
b11100 [
b11101 H
b11110 L
b11100 Y
b11100 >
b11100 W
b111010 O
b11101 2
b11110 1
b11011 F
b11011 #
b11011 A
1+
17
b111010 ,
#59
0+
07
b111011 ,
b11111 '
b11111 3
#60
b0 N
b11111 V
b1111111111100001 S
b11111 [
b11110 H
b11111 L
b11101 Y
b11101 >
b11101 W
b111100 O
b1111 P
b11110 2
b11111 1
b11100 F
b11100 #
b11100 A
1+
17
b111100 ,
#61
0+
07
b111101 ,
b100000 '
b100000 3
#62
b1 N
b1111111111100000 S
b11110 [
b11111 H
b100000 L
b11110 Y
b11110 >
b11110 W
b111110 O
b11111 2
b100000 1
b11101 F
b11101 #
b11101 A
1+
17
b111110 ,
#63
0+
07
b111111 ,
b100001 '
b100001 3
#64
b0 N
b100001 V
b1111111111011111 S
b100001 [
b100000 H
b100001 L
b11111 Y
b11111 >
b11111 W
b1000000 O
b10000 P
b100000 2
b100001 1
b11110 F
b11110 #
b11110 A
1+
17
b1000000 ,
#65
0+
07
b1000001 ,
b100010 '
b100010 3
#66
b1 N
b1111111111011110 S
b100000 [
b100001 H
b100010 L
b100000 Y
b100000 >
b100000 W
b1000010 O
b100001 2
b100010 1
b11111 F
b11111 #
b11111 A
1+
17
b1000010 ,
#67
0+
07
b1000011 ,
b100011 '
b100011 3
#68
b0 N
b100011 V
b1111111111011101 S
b100011 [
b100010 H
b100011 L
b100001 Y
b100001 >
b100001 W
b1000100 O
b10001 P
b100010 2
b100011 1
b100000 F
b100000 #
b100000 A
1+
17
b1000100 ,
#69
0+
07
b1000101 ,
b100100 '
b100100 3
#70
b1 N
b1111111111011100 S
b100010 [
b100011 H
b100100 L
b100010 Y
b100010 >
b100010 W
b1000110 O
b100011 2
b100100 1
b100001 F
b100001 #
b100001 A
1+
17
b1000110 ,
#71
0+
07
b1000111 ,
b100101 '
b100101 3
#72
b0 N
b100101 V
b1111111111011011 S
b100101 [
b100100 H
b100101 L
b100011 Y
b100011 >
b100011 W
b1001000 O
b10010 P
b100100 2
b100101 1
b100010 F
b100010 #
b100010 A
1+
17
b1001000 ,
#73
0+
07
b1001001 ,
b100110 '
b100110 3
#74
b1 N
b1111111111011010 S
b100100 [
b100101 H
b100110 L
b100100 Y
b100100 >
b100100 W
b1001010 O
b100101 2
b100110 1
b100011 F
b100011 #
b100011 A
1+
17
b1001010 ,
#75
0+
07
b1001011 ,
b100111 '
b100111 3
#76
b0 N
b100111 V
b1111111111011001 S
b100111 [
b100110 H
b100111 L
b100101 Y
b100101 >
b100101 W
b1001100 O
b10011 P
b100110 2
b100111 1
b100100 F
b100100 #
b100100 A
1+
17
b1001100 ,
#77
0+
07
b1001101 ,
b101000 '
b101000 3
#78
b1 N
b1111111111011000 S
b100110 [
b100111 H
b101000 L
b100110 Y
b100110 >
b100110 W
b1001110 O
b100111 2
b101000 1
b100101 F
b100101 #
b100101 A
1+
17
b1001110 ,
#79
0+
07
b1001111 ,
b101001 '
b101001 3
#80
b0 N
b101001 V
b1111111111010111 S
b101001 [
b101000 H
b101001 L
b100111 Y
b100111 >
b100111 W
b1010000 O
b10100 P
b101000 2
b101001 1
b100110 F
b100110 #
b100110 A
1+
17
b1010000 ,
#81
0+
07
b1010001 ,
b101010 '
b101010 3
#82
b1 N
b1111111111010110 S
b101000 [
b101001 H
b101010 L
b101000 Y
b101000 >
b101000 W
b1010010 O
b101001 2
b101010 1
b100111 F
b100111 #
b100111 A
1+
17
b1010010 ,
#83
0+
07
b1010011 ,
b101011 '
b101011 3
#84
b0 N
b101011 V
b1111111111010101 S
b101011 [
b101010 H
b101011 L
b101001 Y
b101001 >
b101001 W
b1010100 O
b10101 P
b101010 2
b101011 1
b101000 F
b101000 #
b101000 A
1+
17
b1010100 ,
#85
0+
07
b1010101 ,
b101100 '
b101100 3
#86
b1 N
b1111111111010100 S
b101010 [
b101011 H
b101100 L
b101010 Y
b101010 >
b101010 W
b1010110 O
b101011 2
b101100 1
b101001 F
b101001 #
b101001 A
1+
17
b1010110 ,
#87
0+
07
b1010111 ,
b101101 '
b101101 3
#88
b0 N
b101101 V
b1111111111010011 S
b101101 [
b101100 H
b101101 L
b101011 Y
b101011 >
b101011 W
b1011000 O
b10110 P
b101100 2
b101101 1
b101010 F
b101010 #
b101010 A
1+
17
b1011000 ,
#89
0+
07
b1011001 ,
b101110 '
b101110 3
#90
b1 N
b1111111111010010 S
b101100 [
b101101 H
b101110 L
b101100 Y
b101100 >
b101100 W
b1011010 O
b101101 2
b101110 1
b101011 F
b101011 #
b101011 A
1+
17
b1011010 ,
#91
0+
07
b1011011 ,
b101111 '
b101111 3
#92
b0 N
b101111 V
b1111111111010001 S
b101111 [
b101110 H
b101111 L
b101101 Y
b101101 >
b101101 W
b1011100 O
b10111 P
b101110 2
b101111 1
b101100 F
b101100 #
b101100 A
1+
17
b1011100 ,
#93
0+
07
b1011101 ,
b110000 '
b110000 3
#94
b1 N
b1111111111010000 S
b101110 [
b101111 H
b110000 L
b101110 Y
b101110 >
b101110 W
b1011110 O
b101111 2
b110000 1
b101101 F
b101101 #
b101101 A
1+
17
b1011110 ,
#95
0+
07
b1011111 ,
b110001 '
b110001 3
#96
b0 N
b110001 V
b1111111111001111 S
b110001 [
b110000 H
b110001 L
b101111 Y
b101111 >
b101111 W
b1100000 O
b11000 P
b110000 2
b110001 1
b101110 F
b101110 #
b101110 A
1+
17
b1100000 ,
#97
0+
07
b1100001 ,
b110010 '
b110010 3
#98
b1 N
b1111111111001110 S
b110000 [
b110001 H
b110010 L
b110000 Y
b110000 >
b110000 W
b1100010 O
b110001 2
b110010 1
b101111 F
b101111 #
b101111 A
1+
17
b1100010 ,
#99
0+
07
b1100011 ,
b110011 '
b110011 3
#100
b0 N
b110011 V
b1111111111001101 S
b110011 [
b110010 H
b110011 L
b110001 Y
b110001 >
b110001 W
b1100100 O
b11001 P
b110010 2
b110011 1
b110000 F
b110000 #
b110000 A
1+
17
b1100100 ,
#101
0+
07
b1100101 ,
b110100 '
b110100 3
#102
b1 N
b1111111111001100 S
b110010 [
b110011 H
b110100 L
b110010 Y
b110010 >
b110010 W
b1100110 O
b110011 2
b110100 1
b110001 F
b110001 #
b110001 A
1+
17
b1100110 ,
#103
0+
07
b1100111 ,
b110101 '
b110101 3
#104
b0 N
b110101 V
b1111111111001011 S
b110101 [
b110100 H
b110101 L
b110011 Y
b110011 >
b110011 W
b1101000 O
b11010 P
b110100 2
b110101 1
b110010 F
b110010 #
b110010 A
1+
17
b1101000 ,
#105
0+
07
b1101001 ,
b110110 '
b110110 3
#106
b1 N
b1111111111001010 S
b110100 [
b110101 H
b110110 L
b110100 Y
b110100 >
b110100 W
b1101010 O
b110101 2
b110110 1
b110011 F
b110011 #
b110011 A
1+
17
b1101010 ,
#107
0+
07
b1101011 ,
b110111 '
b110111 3
#108
b0 N
b110111 V
b1111111111001001 S
b110111 [
b110110 H
b110111 L
b110101 Y
b110101 >
b110101 W
b1101100 O
b11011 P
b110110 2
b110111 1
b110100 F
b110100 #
b110100 A
1+
17
b1101100 ,
#109
0+
07
b1101101 ,
b111000 '
b111000 3
#110
b1 N
b1111111111001000 S
b110110 [
b110111 H
b111000 L
b110110 Y
b110110 >
b110110 W
b1101110 O
b110111 2
b111000 1
b110101 F
b110101 #
b110101 A
1+
17
b1101110 ,
#111
0+
07
b1101111 ,
b111001 '
b111001 3
#112
b0 N
b111001 V
b1111111111000111 S
b111001 [
b111000 H
b111001 L
b110111 Y
b110111 >
b110111 W
b1110000 O
b11100 P
b111000 2
b111001 1
b110110 F
b110110 #
b110110 A
1+
17
b1110000 ,
#113
0+
07
b1110001 ,
b111010 '
b111010 3
#114
b1 N
b1111111111000110 S
b111000 [
b111001 H
b111010 L
b111000 Y
b111000 >
b111000 W
b1110010 O
b111001 2
b111010 1
b110111 F
b110111 #
b110111 A
1+
17
b1110010 ,
#115
0+
07
b1110011 ,
b111011 '
b111011 3
#116
b0 N
b111011 V
b1111111111000101 S
b111011 [
b111010 H
b111011 L
b111001 Y
b111001 >
b111001 W
b1110100 O
b11101 P
b111010 2
b111011 1
b111000 F
b111000 #
b111000 A
1+
17
b1110100 ,
#117
0+
07
b1110101 ,
b111100 '
b111100 3
#118
b1 N
b1111111111000100 S
b111010 [
b111011 H
b111100 L
b111010 Y
b111010 >
b111010 W
b1110110 O
b111011 2
b111100 1
b111001 F
b111001 #
b111001 A
1+
17
b1110110 ,
#119
0+
07
b1110111 ,
b111101 '
b111101 3
#120
b0 N
b111101 V
b1111111111000011 S
b111101 [
b111100 H
b111101 L
b111011 Y
b111011 >
b111011 W
b1111000 O
b11110 P
b111100 2
b111101 1
b111010 F
b111010 #
b111010 A
1+
17
b1111000 ,
#121
0+
07
b1111001 ,
b111110 '
b111110 3
#122
b1 N
b1111111111000010 S
b111100 [
b111101 H
b111110 L
b111100 Y
b111100 >
b111100 W
b1111010 O
b111101 2
b111110 1
b111011 F
b111011 #
b111011 A
1+
17
b1111010 ,
#123
0+
07
b1111011 ,
b111111 '
b111111 3
#124
b0 N
b111111 V
b1111111111000001 S
b111111 [
b111110 H
b111111 L
b111101 Y
b111101 >
b111101 W
b1111100 O
b11111 P
b111110 2
b111111 1
b111100 F
b111100 #
b111100 A
1+
17
b1111100 ,
#125
0+
07
b1111101 ,
b1000000 '
b1000000 3
#126
b1 N
b1111111111000000 S
b111110 [
b111111 H
b1000000 L
b111110 Y
b111110 >
b111110 W
b1111110 O
b111111 2
b1000000 1
b111101 F
b111101 #
b111101 A
1+
17
b1111110 ,
#127
0+
07
b1111111 ,
b1000001 '
b1000001 3
#128
b0 N
b1000001 V
b1111111110111111 S
b1000001 [
b1000000 H
b1000001 L
b111111 Y
b111111 >
b111111 W
b10000000 O
b100000 P
b1000000 2
b1000001 1
b111110 F
b111110 #
b111110 A
1+
17
b10000000 ,
